[
  {
    "question": "This type of bond involves the sharing of electron pairs between different atoms. What do you call this bond?",
    "answer": "Covalent"
  },
  {
    "question": "Pancakes are a food item of what type of cuisine?",
    "answer": "American"
  },
  {
    "question": "This is the quality of an object that allows it to float on water.",
    "answer": "Buoyancy"
  },
  {
    "question": "In which country Adolph Hitler was born?",
    "answer": "Austria"
  },
  {
    "question": "The original Coca-Cola recipe is said to contain what controversial ingredient?",
    "answer": "Cocaine"
  },
  {
    "question": "What is the tallest type of grass?",
    "answer": "Bamboo"
  },
  {
    "question": "The name of this disease stems from the medieval term that means \u2018bad air\u2019. What disease is it?",
    "answer": "Malaria"
  },
  {
    "question": "Which element makes up the most of the Sun?",
    "answer": "Hydrogen"
  },
  {
    "question": "Animals that eat both plants and meat are called what?",
    "answer": "Omnivores"
  },
  {
    "question": "Diabetes develops as the result of a problem with which specific organ in the body?",
    "answer": "Pancreas"
  },
  {
    "question": "Which element of the periodic table is named after a titan of Greek myth?",
    "answer": "Promethium"
  },
  {
    "question": "What is short for \"light amplification by stimulated emission of radiation\"?",
    "answer": "Laser"
  },
  {
    "question": "Atelophobia is the fear of what?",
    "answer": "Imperfection"
  },
  {
    "question": "What popular board game involving money was banned in the Soviet Union?",
    "answer": "Monopoly"
  },
  {
    "question": "This essential gas is essential for us to breathe",
    "answer": "Oxygen"
  },
  {
    "question": "What is the nearest planet to the sun?",
    "answer": "Mercury"
  },
  {
    "question": "What do bees collect and use to create honey?",
    "answer": "Nectar"
  },
  {
    "question": "What is the largest known land animal?",
    "answer": "Elephant"
  },
  {
    "question": "Who was the scientist to propose the three laws of motion?",
    "answer": "Newton"
  },
  {
    "question": "This planet spins the fastest, completing one whole rotation in just 10 hours. Which planet is it?",
    "answer": "Jupiter"
  },
  {
    "question": "This planet has a collective 53 moons, making it the planet in our solar system with the most number of moons.",
    "answer": "Saturn"
  },
  {
    "question": "How many bones do sharks have in total?",
    "answer": "Zero"
  },
  {
    "question": "What is the hardest known natural material?",
    "answer": "Diamonds"
  },
  {
    "question": "What is it called when you make light change direction by passing it through a lens?",
    "answer": "Refraction"
  },
  {
    "question": "Where is the world\u2019s most active volcano located?",
    "answer": "Hawaii"
  },
  {
    "question": "What is named material that does not allow an electric current to pass through it?",
    "answer": "Insulators"
  },
  {
    "question": "Most of a penny is made from what type of metal?",
    "answer": "Zinc"
  },
  {
    "question": "Space travelers from the United States are called astronauts. From Russia, they're called cosmonauts. What are they called in China?",
    "answer": "Taikonauts"
  },
  {
    "question": "What did Alfred Nobel invent?",
    "answer": "Dynamite"
  },
  {
    "question": "This is the unit of measure used to quantify radioactive element activity.",
    "answer": "Becqueral"
  },
  {
    "question": "How is the proccess of a solid matter transitioning to a gas immediately without having to pass through the liquid state called?",
    "answer": "Sublimation"
  },
  {
    "question": "This Greek physician was the first to keep records of his patients\u2019 histories.",
    "answer": "Hippocrates"
  },
  {
    "question": "What number doesn\u2019t have its own Roman numeral?",
    "answer": "Zero"
  },
  {
    "question": "Which natural disaster is measured with a Richter scale?",
    "answer": "Earthquake"
  },
  {
    "question": "What kind of cells are found in the brain?",
    "answer": "Neurons"
  },
  {
    "question": "What is the only moon in our solar system to spin in a direction opposite of its planet's rotation?",
    "answer": "Triton"
  },
  {
    "question": "On a map, the vertical lines are called what?",
    "answer": "Longitude"
  },
  {
    "question": "An infectious particle that can only reproduce inside a living cell is called what?",
    "answer": "Virus"
  },
  {
    "question": "Shiitake, Enoki, Button, Porcini are all types of what?",
    "answer": "Mushroom"
  },
  {
    "question": "As which Russian leader was Vladimir Ulyanov better known?",
    "answer": "Lenin"
  },
  {
    "question": "What are the only animals unable to jump?",
    "answer": "Elephants"
  },
  {
    "question": "25% of Americans believe that this imaginary character is a real person. Who is he?",
    "answer": "Sherlock Holmes"
  },
  {
    "question": "Which creature has a heart in the head?",
    "answer": "Shrimp"
  },
  {
    "question": "Which animal cannot stick out its tongue?",
    "answer": "Crocodile"
  },
  {
    "question": "Which animal has more than one tongue?",
    "answer": "Lemur"
  },
  {
    "question": "Water boils at 212 degrees on which temperature scale?",
    "answer": "Fahrenheit"
  },
  {
    "question": "Which animal has three hearts?",
    "answer": "Octopus"
  },
  {
    "question": "Which animal sleeps the most?",
    "answer": "Koalas"
  },
  {
    "question": "What is the mass per unit volume of material called?",
    "answer": "Density"
  },
  {
    "question": "Which country has the fewest people per square mile?",
    "answer": "Namibia"
  },
  {
    "question": "Gregor Samsa is the main character in which of the short stories by Franz Kafka?",
    "answer": "Metamorphosis"
  },
  {
    "question": "Which is the fastest fish in the sea?",
    "answer": "Sailfish"
  },
  {
    "question": "Which famous battle ended the Napoleonic Wars?",
    "answer": "Waterloo"
  }
]