[gd_resource type="StyleBoxFlat" format=2]

[resource]
content_margin_left = 11.0
content_margin_right = 0.0
content_margin_top = 10.0
content_margin_bottom = 0.0
bg_color = Color( 0, 0, 0, 0.235294 )
border_width_left = 5
border_width_top = 5
border_width_right = 5
border_width_bottom = 5
border_color = Color( 0.0401691, 0.656823, 1, 0.439216 )
corner_radius_top_left = 5
corner_radius_top_right = 5
corner_radius_bottom_right = 5
corner_radius_bottom_left = 5
