[gd_scene load_steps=100 format=2]

[ext_resource path="res://src/objects/level/LevelGeneration.gd" type="Script" id=1]
[ext_resource path="res://assets/world/wall/WallTileset.png" type="Texture" id=2]
[ext_resource path="res://assets/world/wall_desert/DesertWallTileset.png" type="Texture" id=3]

[sub_resource type="ConvexPolygonShape2D" id=1]
points = PoolVector2Array( 0, 0, 32, 0, 32, 32, 0, 32 )

[sub_resource type="ConvexPolygonShape2D" id=2]
points = PoolVector2Array( 0, 0, 32, 0, 32, 32, 0, 32 )

[sub_resource type="ConvexPolygonShape2D" id=3]
points = PoolVector2Array( 0, 0, 32, 0, 32, 32, 0, 32 )

[sub_resource type="ConvexPolygonShape2D" id=4]
points = PoolVector2Array( 0, 0, 32, 0, 32, 32, 0, 32 )

[sub_resource type="ConvexPolygonShape2D" id=5]
points = PoolVector2Array( 0, 0, 32, 0, 32, 32, 0, 32 )

[sub_resource type="ConvexPolygonShape2D" id=6]
points = PoolVector2Array( 0, 0, 32, 0, 32, 32, 0, 32 )

[sub_resource type="ConvexPolygonShape2D" id=7]
points = PoolVector2Array( 0, 0, 32, 0, 32, 32, 0, 32 )

[sub_resource type="ConvexPolygonShape2D" id=8]
points = PoolVector2Array( 0, 0, 32, 0, 32, 32, 0, 32 )

[sub_resource type="ConvexPolygonShape2D" id=9]
points = PoolVector2Array( 0, 0, 32, 0, 32, 32, 0, 32 )

[sub_resource type="ConvexPolygonShape2D" id=10]
points = PoolVector2Array( 0, 0, 32, 0, 32, 32, 0, 32 )

[sub_resource type="ConvexPolygonShape2D" id=11]
points = PoolVector2Array( 0, 0, 32, 0, 32, 32, 0, 32 )

[sub_resource type="ConvexPolygonShape2D" id=12]
points = PoolVector2Array( 0, 0, 32, 0, 32, 32, 0, 32 )

[sub_resource type="ConvexPolygonShape2D" id=13]
points = PoolVector2Array( 0, 0, 32, 0, 32, 32, 0, 32 )

[sub_resource type="ConvexPolygonShape2D" id=14]
points = PoolVector2Array( 0, 0, 32, 0, 32, 32, 0, 32 )

[sub_resource type="ConvexPolygonShape2D" id=15]
points = PoolVector2Array( 0, 0, 32, 0, 32, 32, 0, 32 )

[sub_resource type="ConvexPolygonShape2D" id=16]
points = PoolVector2Array( 0, 0, 32, 0, 32, 32, 0, 32 )

[sub_resource type="ConvexPolygonShape2D" id=17]
points = PoolVector2Array( 0, 0, 32, 0, 32, 32, 0, 32 )

[sub_resource type="ConvexPolygonShape2D" id=18]
points = PoolVector2Array( 0, 0, 32, 0, 32, 32, 0, 32 )

[sub_resource type="ConvexPolygonShape2D" id=19]
points = PoolVector2Array( 0, 0, 32, 0, 32, 32, 0, 32 )

[sub_resource type="ConvexPolygonShape2D" id=20]
points = PoolVector2Array( 0, 0, 32, 0, 32, 32, 0, 32 )

[sub_resource type="ConvexPolygonShape2D" id=21]
points = PoolVector2Array( 0, 0, 32, 0, 32, 32, 0, 32 )

[sub_resource type="ConvexPolygonShape2D" id=22]
points = PoolVector2Array( 0, 0, 32, 0, 32, 32, 0, 32 )

[sub_resource type="ConvexPolygonShape2D" id=23]
points = PoolVector2Array( 0, 0, 32, 0, 32, 32, 0, 32 )

[sub_resource type="ConvexPolygonShape2D" id=24]
points = PoolVector2Array( 0, 0, 32, 0, 32, 32, 0, 32 )

[sub_resource type="ConvexPolygonShape2D" id=25]
points = PoolVector2Array( 0, 0, 32, 0, 32, 32, 0, 32 )

[sub_resource type="ConvexPolygonShape2D" id=26]
points = PoolVector2Array( 0, 0, 32, 0, 32, 32, 0, 32 )

[sub_resource type="ConvexPolygonShape2D" id=27]
points = PoolVector2Array( 0, 0, 32, 0, 32, 32, 0, 32 )

[sub_resource type="ConvexPolygonShape2D" id=28]
points = PoolVector2Array( 0, 0, 32, 0, 32, 32, 0, 32 )

[sub_resource type="ConvexPolygonShape2D" id=29]
points = PoolVector2Array( 0, 0, 32, 0, 32, 32, 0, 32 )

[sub_resource type="ConvexPolygonShape2D" id=30]
points = PoolVector2Array( 0, 0, 32, 0, 32, 32, 0, 32 )

[sub_resource type="ConvexPolygonShape2D" id=31]
points = PoolVector2Array( 0, 0, 32, 0, 32, 32, 0, 32 )

[sub_resource type="ConvexPolygonShape2D" id=32]
points = PoolVector2Array( 0, 0, 32, 0, 32, 32, 0, 32 )

[sub_resource type="ConvexPolygonShape2D" id=33]
points = PoolVector2Array( 0, 0, 32, 0, 32, 32, 0, 32 )

[sub_resource type="ConvexPolygonShape2D" id=34]
points = PoolVector2Array( 0, 0, 32, 0, 32, 32, 0, 32 )

[sub_resource type="ConvexPolygonShape2D" id=35]
points = PoolVector2Array( 0, 0, 32, 0, 32, 32, 0, 32 )

[sub_resource type="ConvexPolygonShape2D" id=36]
points = PoolVector2Array( 0, 0, 32, 0, 32, 32, 0, 32 )

[sub_resource type="ConvexPolygonShape2D" id=37]
points = PoolVector2Array( 0, 0, 32, 0, 32, 32, 0, 32 )

[sub_resource type="ConvexPolygonShape2D" id=38]
points = PoolVector2Array( 0, 0, 32, 0, 32, 32, 0, 32 )

[sub_resource type="ConvexPolygonShape2D" id=39]
points = PoolVector2Array( 0, 0, 32, 0, 32, 32, 0, 32 )

[sub_resource type="ConvexPolygonShape2D" id=40]
points = PoolVector2Array( 0, 0, 32, 0, 32, 32, 0, 32 )

[sub_resource type="ConvexPolygonShape2D" id=41]
points = PoolVector2Array( 0, 0, 32, 0, 32, 32, 0, 32 )

[sub_resource type="ConvexPolygonShape2D" id=42]
points = PoolVector2Array( 0, 0, 32, 0, 32, 32, 0, 32 )

[sub_resource type="ConvexPolygonShape2D" id=43]
points = PoolVector2Array( 0, 0, 32, 0, 32, 32, 0, 32 )

[sub_resource type="ConvexPolygonShape2D" id=44]
points = PoolVector2Array( 0, 0, 32, 0, 32, 32, 0, 32 )

[sub_resource type="ConvexPolygonShape2D" id=45]
points = PoolVector2Array( 0, 0, 32, 0, 32, 32, 0, 32 )

[sub_resource type="ConvexPolygonShape2D" id=46]
points = PoolVector2Array( 0, 0, 32, 0, 32, 32, 0, 32 )

[sub_resource type="ConvexPolygonShape2D" id=47]
points = PoolVector2Array( 0, 0, 32, 0, 32, 32, 0, 32 )

[sub_resource type="ConvexPolygonShape2D" id=48]
points = PoolVector2Array( 0, 32, 0, 32, 0, 32, 0, 32 )

[sub_resource type="ConvexPolygonShape2D" id=49]
points = PoolVector2Array( 0, 0, 32, 0, 32, 32, 0, 32 )

[sub_resource type="ConvexPolygonShape2D" id=50]
points = PoolVector2Array( 0, 0, 32, 0, 32, 32, 0, 32 )

[sub_resource type="ConvexPolygonShape2D" id=51]
points = PoolVector2Array( 0, 0, 32, 0, 32, 32, 0, 32 )

[sub_resource type="ConvexPolygonShape2D" id=52]
points = PoolVector2Array( 0, 0, 32, 0, 32, 32, 0, 32 )

[sub_resource type="ConvexPolygonShape2D" id=53]
points = PoolVector2Array( 0, 0, 32, 0, 32, 32, 0, 32 )

[sub_resource type="ConvexPolygonShape2D" id=54]
points = PoolVector2Array( 0, 0, 32, 0, 32, 32, 0, 32 )

[sub_resource type="ConvexPolygonShape2D" id=55]
points = PoolVector2Array( 0, 0, 32, 0, 32, 32, 0, 32 )

[sub_resource type="ConvexPolygonShape2D" id=56]
points = PoolVector2Array( 0, 0, 32, 0, 32, 32, 0, 32 )

[sub_resource type="ConvexPolygonShape2D" id=57]
points = PoolVector2Array( 0, 0, 32, 0, 32, 32, 0, 32 )

[sub_resource type="ConvexPolygonShape2D" id=58]
points = PoolVector2Array( 0, 0, 32, 0, 32, 32, 0, 32 )

[sub_resource type="ConvexPolygonShape2D" id=59]
points = PoolVector2Array( 0, 0, 32, 0, 32, 32, 0, 32 )

[sub_resource type="ConvexPolygonShape2D" id=60]
points = PoolVector2Array( 0, 0, 32, 0, 32, 32, 0, 32 )

[sub_resource type="ConvexPolygonShape2D" id=61]
points = PoolVector2Array( 0, 0, 32, 0, 32, 32, 0, 32 )

[sub_resource type="ConvexPolygonShape2D" id=62]
points = PoolVector2Array( 0, 0, 32, 0, 32, 32, 0, 32 )

[sub_resource type="ConvexPolygonShape2D" id=63]
points = PoolVector2Array( 0, 0, 32, 0, 32, 32, 0, 32 )

[sub_resource type="ConvexPolygonShape2D" id=64]
points = PoolVector2Array( 0, 0, 32, 0, 32, 32, 0, 32 )

[sub_resource type="ConvexPolygonShape2D" id=65]
points = PoolVector2Array( 0, 0, 32, 0, 32, 32, 0, 32 )

[sub_resource type="ConvexPolygonShape2D" id=66]
points = PoolVector2Array( 0, 0, 32, 0, 32, 32, 0, 32 )

[sub_resource type="ConvexPolygonShape2D" id=67]
points = PoolVector2Array( 0, 0, 32, 0, 32, 32, 0, 32 )

[sub_resource type="ConvexPolygonShape2D" id=68]
points = PoolVector2Array( 0, 0, 32, 0, 32, 32, 0, 32 )

[sub_resource type="ConvexPolygonShape2D" id=69]
points = PoolVector2Array( 0, 0, 32, 0, 32, 32, 0, 32 )

[sub_resource type="ConvexPolygonShape2D" id=70]
points = PoolVector2Array( 0, 0, 32, 0, 32, 32, 0, 32 )

[sub_resource type="ConvexPolygonShape2D" id=71]
points = PoolVector2Array( 0, 0, 32, 0, 32, 32, 0, 32 )

[sub_resource type="ConvexPolygonShape2D" id=72]
points = PoolVector2Array( 0, 0, 32, 0, 32, 32, 0, 32 )

[sub_resource type="ConvexPolygonShape2D" id=73]
points = PoolVector2Array( 0, 0, 32, 0, 32, 32, 0, 32 )

[sub_resource type="ConvexPolygonShape2D" id=74]
points = PoolVector2Array( 0, 0, 32, 0, 32, 32, 0, 32 )

[sub_resource type="ConvexPolygonShape2D" id=75]
points = PoolVector2Array( 0, 0, 32, 0, 32, 32, 0, 32 )

[sub_resource type="ConvexPolygonShape2D" id=76]
points = PoolVector2Array( 0, 0, 32, 0, 32, 32, 0, 32 )

[sub_resource type="ConvexPolygonShape2D" id=77]
points = PoolVector2Array( 0, 0, 32, 0, 32, 32, 0, 32 )

[sub_resource type="ConvexPolygonShape2D" id=78]
points = PoolVector2Array( 0, 0, 32, 0, 32, 32, 0, 32 )

[sub_resource type="ConvexPolygonShape2D" id=79]
points = PoolVector2Array( 0, 0, 32, 0, 32, 32, 0, 32 )

[sub_resource type="ConvexPolygonShape2D" id=80]
points = PoolVector2Array( 0, 0, 32, 0, 32, 32, 0, 32 )

[sub_resource type="ConvexPolygonShape2D" id=81]
points = PoolVector2Array( 0, 0, 32, 0, 32, 32, 0, 32 )

[sub_resource type="ConvexPolygonShape2D" id=82]
points = PoolVector2Array( 0, 0, 32, 0, 32, 32, 0, 32 )

[sub_resource type="ConvexPolygonShape2D" id=83]
points = PoolVector2Array( 0, 0, 32, 0, 32, 32, 0, 32 )

[sub_resource type="ConvexPolygonShape2D" id=84]
points = PoolVector2Array( 0, 0, 32, 0, 32, 32, 0, 32 )

[sub_resource type="ConvexPolygonShape2D" id=85]
points = PoolVector2Array( 0, 0, 32, 0, 32, 32, 0, 32 )

[sub_resource type="ConvexPolygonShape2D" id=86]
points = PoolVector2Array( 0, 0, 32, 0, 32, 32, 0, 32 )

[sub_resource type="ConvexPolygonShape2D" id=87]
points = PoolVector2Array( 0, 0, 32, 0, 32, 32, 0, 32 )

[sub_resource type="ConvexPolygonShape2D" id=88]
points = PoolVector2Array( 0, 0, 32, 0, 32, 32, 0, 32 )

[sub_resource type="ConvexPolygonShape2D" id=89]
points = PoolVector2Array( 0, 0, 32, 0, 32, 32, 0, 32 )

[sub_resource type="ConvexPolygonShape2D" id=90]
points = PoolVector2Array( 0, 0, 32, 0, 32, 32, 0, 32 )

[sub_resource type="ConvexPolygonShape2D" id=91]
points = PoolVector2Array( 0, 0, 32, 0, 32, 32, 0, 32 )

[sub_resource type="ConvexPolygonShape2D" id=92]
points = PoolVector2Array( 0, 0, 32, 0, 32, 32, 0, 32 )

[sub_resource type="ConvexPolygonShape2D" id=93]
points = PoolVector2Array( 0, 0, 32, 0, 32, 32, 0, 32 )

[sub_resource type="ConvexPolygonShape2D" id=94]
points = PoolVector2Array( 0, 0, 32, 0, 32, 32, 0, 32 )

[sub_resource type="ConvexPolygonShape2D" id=95]
points = PoolVector2Array( 0, 0, 32, 0, 32, 32, 0, 32 )

[sub_resource type="TileSet" id=96]
0/name = "WallTileset.png 0"
0/texture = ExtResource( 2 )
0/tex_offset = Vector2( 0, 0 )
0/modulate = Color( 1, 1, 1, 1 )
0/region = Rect2( 0, 0, 352, 160 )
0/tile_mode = 1
0/autotile/bitmask_mode = 1
0/autotile/bitmask_flags = [ Vector2( 0, 0 ), 432, Vector2( 0, 1 ), 438, Vector2( 0, 2 ), 54, Vector2( 0, 3 ), 48, Vector2( 1, 0 ), 504, Vector2( 1, 1 ), 511, Vector2( 1, 2 ), 63, Vector2( 1, 3 ), 56, Vector2( 2, 0 ), 216, Vector2( 2, 1 ), 219, Vector2( 2, 2 ), 27, Vector2( 2, 3 ), 24, Vector2( 3, 0 ), 144, Vector2( 3, 1 ), 146, Vector2( 3, 2 ), 18, Vector2( 3, 3 ), 16, Vector2( 4, 0 ), 176, Vector2( 4, 1 ), 182, Vector2( 4, 2 ), 434, Vector2( 4, 3 ), 50, Vector2( 4, 4 ), 178, Vector2( 5, 0 ), 248, Vector2( 5, 1 ), 255, Vector2( 5, 2 ), 507, Vector2( 5, 3 ), 59, Vector2( 5, 4 ), 251, Vector2( 6, 0 ), 440, Vector2( 6, 1 ), 447, Vector2( 6, 2 ), 510, Vector2( 6, 3 ), 62, Vector2( 6, 4 ), 446, Vector2( 7, 0 ), 152, Vector2( 7, 1 ), 155, Vector2( 7, 2 ), 218, Vector2( 7, 3 ), 27, Vector2( 7, 4 ), 154, Vector2( 8, 0 ), 184, Vector2( 8, 1 ), 191, Vector2( 8, 2 ), 506, Vector2( 8, 3 ), 58, Vector2( 8, 4 ), 186, Vector2( 9, 0 ), 443, Vector2( 9, 1 ), 254, Vector2( 9, 2 ), 442, Vector2( 9, 3 ), 190, Vector2( 10, 2 ), 250, Vector2( 10, 3 ), 187 ]
0/autotile/icon_coordinate = Vector2( 0, 0 )
0/autotile/tile_size = Vector2( 32, 32 )
0/autotile/spacing = 0
0/autotile/occluder_map = [  ]
0/autotile/navpoly_map = [  ]
0/autotile/priority_map = [  ]
0/autotile/z_index_map = [  ]
0/occluder_offset = Vector2( 0, 0 )
0/navigation_offset = Vector2( 0, 0 )
0/shape_offset = Vector2( 0, 0 )
0/shape_transform = Transform2D( 1, 0, 0, 1, 0, 0 )
0/shape = SubResource( 1 )
0/shape_one_way = false
0/shape_one_way_margin = 1.0
0/shapes = [ {
"autotile_coord": Vector2( 0, 0 ),
"one_way": false,
"one_way_margin": 1.0,
"shape": SubResource( 1 ),
"shape_transform": Transform2D( 1, 0, 0, 1, 0, 0 )
}, {
"autotile_coord": Vector2( 1, 0 ),
"one_way": false,
"one_way_margin": 1.0,
"shape": SubResource( 2 ),
"shape_transform": Transform2D( 1, 0, 0, 1, 0, 0 )
}, {
"autotile_coord": Vector2( 2, 0 ),
"one_way": false,
"one_way_margin": 1.0,
"shape": SubResource( 3 ),
"shape_transform": Transform2D( 1, 0, 0, 1, 0, 0 )
}, {
"autotile_coord": Vector2( 0, 1 ),
"one_way": false,
"one_way_margin": 1.0,
"shape": SubResource( 4 ),
"shape_transform": Transform2D( 1, 0, 0, 1, 0, 0 )
}, {
"autotile_coord": Vector2( 1, 1 ),
"one_way": false,
"one_way_margin": 1.0,
"shape": SubResource( 5 ),
"shape_transform": Transform2D( 1, 0, 0, 1, 0, 0 )
}, {
"autotile_coord": Vector2( 2, 1 ),
"one_way": false,
"one_way_margin": 1.0,
"shape": SubResource( 6 ),
"shape_transform": Transform2D( 1, 0, 0, 1, 0, 0 )
}, {
"autotile_coord": Vector2( 0, 2 ),
"one_way": false,
"one_way_margin": 1.0,
"shape": SubResource( 7 ),
"shape_transform": Transform2D( 1, 0, 0, 1, 0, 0 )
}, {
"autotile_coord": Vector2( 1, 2 ),
"one_way": false,
"one_way_margin": 1.0,
"shape": SubResource( 8 ),
"shape_transform": Transform2D( 1, 0, 0, 1, 0, 0 )
}, {
"autotile_coord": Vector2( 2, 2 ),
"one_way": false,
"one_way_margin": 1.0,
"shape": SubResource( 9 ),
"shape_transform": Transform2D( 1, 0, 0, 1, 0, 0 )
}, {
"autotile_coord": Vector2( 3, 0 ),
"one_way": false,
"one_way_margin": 1.0,
"shape": SubResource( 10 ),
"shape_transform": Transform2D( 1, 0, 0, 1, 0, 0 )
}, {
"autotile_coord": Vector2( 3, 1 ),
"one_way": false,
"one_way_margin": 1.0,
"shape": SubResource( 11 ),
"shape_transform": Transform2D( 1, 0, 0, 1, 0, 0 )
}, {
"autotile_coord": Vector2( 10, 2 ),
"one_way": false,
"one_way_margin": 1.0,
"shape": SubResource( 12 ),
"shape_transform": Transform2D( 1, 0, 0, 1, 0, 0 )
}, {
"autotile_coord": Vector2( 10, 3 ),
"one_way": false,
"one_way_margin": 1.0,
"shape": SubResource( 13 ),
"shape_transform": Transform2D( 1, 0, 0, 1, 0, 0 )
}, {
"autotile_coord": Vector2( 9, 3 ),
"one_way": false,
"one_way_margin": 1.0,
"shape": SubResource( 14 ),
"shape_transform": Transform2D( 1, 0, 0, 1, 0, 0 )
}, {
"autotile_coord": Vector2( 9, 2 ),
"one_way": false,
"one_way_margin": 1.0,
"shape": SubResource( 15 ),
"shape_transform": Transform2D( 1, 0, 0, 1, 0, 0 )
}, {
"autotile_coord": Vector2( 9, 1 ),
"one_way": false,
"one_way_margin": 1.0,
"shape": SubResource( 16 ),
"shape_transform": Transform2D( 1, 0, 0, 1, 0, 0 )
}, {
"autotile_coord": Vector2( 9, 0 ),
"one_way": false,
"one_way_margin": 1.0,
"shape": SubResource( 17 ),
"shape_transform": Transform2D( 1, 0, 0, 1, 0, 0 )
}, {
"autotile_coord": Vector2( 8, 0 ),
"one_way": false,
"one_way_margin": 1.0,
"shape": SubResource( 18 ),
"shape_transform": Transform2D( 1, 0, 0, 1, 0, 0 )
}, {
"autotile_coord": Vector2( 8, 1 ),
"one_way": false,
"one_way_margin": 1.0,
"shape": SubResource( 19 ),
"shape_transform": Transform2D( 1, 0, 0, 1, 0, 0 )
}, {
"autotile_coord": Vector2( 8, 2 ),
"one_way": false,
"one_way_margin": 1.0,
"shape": SubResource( 20 ),
"shape_transform": Transform2D( 1, 0, 0, 1, 0, 0 )
}, {
"autotile_coord": Vector2( 8, 3 ),
"one_way": false,
"one_way_margin": 1.0,
"shape": SubResource( 21 ),
"shape_transform": Transform2D( 1, 0, 0, 1, 0, 0 )
}, {
"autotile_coord": Vector2( 8, 4 ),
"one_way": false,
"one_way_margin": 1.0,
"shape": SubResource( 22 ),
"shape_transform": Transform2D( 1, 0, 0, 1, 0, 0 )
}, {
"autotile_coord": Vector2( 7, 0 ),
"one_way": false,
"one_way_margin": 1.0,
"shape": SubResource( 23 ),
"shape_transform": Transform2D( 1, 0, 0, 1, 0, 0 )
}, {
"autotile_coord": Vector2( 6, 0 ),
"one_way": false,
"one_way_margin": 1.0,
"shape": SubResource( 24 ),
"shape_transform": Transform2D( 1, 0, 0, 1, 0, 0 )
}, {
"autotile_coord": Vector2( 5, 0 ),
"one_way": false,
"one_way_margin": 1.0,
"shape": SubResource( 25 ),
"shape_transform": Transform2D( 1, 0, 0, 1, 0, 0 )
}, {
"autotile_coord": Vector2( 4, 0 ),
"one_way": false,
"one_way_margin": 1.0,
"shape": SubResource( 26 ),
"shape_transform": Transform2D( 1, 0, 0, 1, 0, 0 )
}, {
"autotile_coord": Vector2( 4, 4 ),
"one_way": false,
"one_way_margin": 1.0,
"shape": SubResource( 27 ),
"shape_transform": Transform2D( 1, 0, 0, 1, 0, 0 )
}, {
"autotile_coord": Vector2( 5, 4 ),
"one_way": false,
"one_way_margin": 1.0,
"shape": SubResource( 28 ),
"shape_transform": Transform2D( 1, 0, 0, 1, 0, 0 )
}, {
"autotile_coord": Vector2( 6, 4 ),
"one_way": false,
"one_way_margin": 1.0,
"shape": SubResource( 29 ),
"shape_transform": Transform2D( 1, 0, 0, 1, 0, 0 )
}, {
"autotile_coord": Vector2( 7, 4 ),
"one_way": false,
"one_way_margin": 1.0,
"shape": SubResource( 30 ),
"shape_transform": Transform2D( 1, 0, 0, 1, 0, 0 )
}, {
"autotile_coord": Vector2( 0, 3 ),
"one_way": false,
"one_way_margin": 1.0,
"shape": SubResource( 31 ),
"shape_transform": Transform2D( 1, 0, 0, 1, 0, 0 )
}, {
"autotile_coord": Vector2( 1, 3 ),
"one_way": false,
"one_way_margin": 1.0,
"shape": SubResource( 32 ),
"shape_transform": Transform2D( 1, 0, 0, 1, 0, 0 )
}, {
"autotile_coord": Vector2( 2, 3 ),
"one_way": false,
"one_way_margin": 1.0,
"shape": SubResource( 33 ),
"shape_transform": Transform2D( 1, 0, 0, 1, 0, 0 )
}, {
"autotile_coord": Vector2( 3, 2 ),
"one_way": false,
"one_way_margin": 1.0,
"shape": SubResource( 34 ),
"shape_transform": Transform2D( 1, 0, 0, 1, 0, 0 )
}, {
"autotile_coord": Vector2( 3, 3 ),
"one_way": false,
"one_way_margin": 1.0,
"shape": SubResource( 35 ),
"shape_transform": Transform2D( 1, 0, 0, 1, 0, 0 )
}, {
"autotile_coord": Vector2( 5, 2 ),
"one_way": false,
"one_way_margin": 1.0,
"shape": SubResource( 36 ),
"shape_transform": Transform2D( 1, 0, 0, 1, 0, 0 )
}, {
"autotile_coord": Vector2( 4, 2 ),
"one_way": false,
"one_way_margin": 1.0,
"shape": SubResource( 37 ),
"shape_transform": Transform2D( 1, 0, 0, 1, 0, 0 )
}, {
"autotile_coord": Vector2( 4, 3 ),
"one_way": false,
"one_way_margin": 1.0,
"shape": SubResource( 38 ),
"shape_transform": Transform2D( 1, 0, 0, 1, 0, 0 )
}, {
"autotile_coord": Vector2( 5, 3 ),
"one_way": false,
"one_way_margin": 1.0,
"shape": SubResource( 39 ),
"shape_transform": Transform2D( 1, 0, 0, 1, 0, 0 )
}, {
"autotile_coord": Vector2( 6, 2 ),
"one_way": false,
"one_way_margin": 1.0,
"shape": SubResource( 40 ),
"shape_transform": Transform2D( 1, 0, 0, 1, 0, 0 )
}, {
"autotile_coord": Vector2( 6, 3 ),
"one_way": false,
"one_way_margin": 1.0,
"shape": SubResource( 41 ),
"shape_transform": Transform2D( 1, 0, 0, 1, 0, 0 )
}, {
"autotile_coord": Vector2( 7, 3 ),
"one_way": false,
"one_way_margin": 1.0,
"shape": SubResource( 42 ),
"shape_transform": Transform2D( 1, 0, 0, 1, 0, 0 )
}, {
"autotile_coord": Vector2( 7, 2 ),
"one_way": false,
"one_way_margin": 1.0,
"shape": SubResource( 43 ),
"shape_transform": Transform2D( 1, 0, 0, 1, 0, 0 )
}, {
"autotile_coord": Vector2( 7, 1 ),
"one_way": false,
"one_way_margin": 1.0,
"shape": SubResource( 44 ),
"shape_transform": Transform2D( 1, 0, 0, 1, 0, 0 )
}, {
"autotile_coord": Vector2( 6, 1 ),
"one_way": false,
"one_way_margin": 1.0,
"shape": SubResource( 45 ),
"shape_transform": Transform2D( 1, 0, 0, 1, 0, 0 )
}, {
"autotile_coord": Vector2( 5, 1 ),
"one_way": false,
"one_way_margin": 1.0,
"shape": SubResource( 46 ),
"shape_transform": Transform2D( 1, 0, 0, 1, 0, 0 )
}, {
"autotile_coord": Vector2( 4, 1 ),
"one_way": false,
"one_way_margin": 1.0,
"shape": SubResource( 47 ),
"shape_transform": Transform2D( 1, 0, 0, 1, 0, 0 )
} ]
0/z_index = 0
1/name = "DesertWallTileset.png 1"
1/texture = ExtResource( 3 )
1/tex_offset = Vector2( 0, 0 )
1/modulate = Color( 1, 1, 1, 1 )
1/region = Rect2( 0, 0, 352, 160 )
1/tile_mode = 1
1/autotile/bitmask_mode = 1
1/autotile/bitmask_flags = [ Vector2( 0, 0 ), 432, Vector2( 0, 1 ), 438, Vector2( 0, 2 ), 54, Vector2( 0, 3 ), 48, Vector2( 1, 0 ), 504, Vector2( 1, 1 ), 511, Vector2( 1, 2 ), 63, Vector2( 1, 3 ), 56, Vector2( 2, 0 ), 216, Vector2( 2, 1 ), 219, Vector2( 2, 2 ), 27, Vector2( 2, 3 ), 24, Vector2( 3, 0 ), 144, Vector2( 3, 1 ), 146, Vector2( 3, 2 ), 18, Vector2( 3, 3 ), 16, Vector2( 4, 0 ), 176, Vector2( 4, 1 ), 182, Vector2( 4, 2 ), 434, Vector2( 4, 3 ), 50, Vector2( 4, 4 ), 178, Vector2( 5, 0 ), 248, Vector2( 5, 1 ), 255, Vector2( 5, 2 ), 507, Vector2( 5, 3 ), 59, Vector2( 5, 4 ), 251, Vector2( 6, 0 ), 440, Vector2( 6, 1 ), 447, Vector2( 6, 2 ), 510, Vector2( 6, 3 ), 62, Vector2( 6, 4 ), 446, Vector2( 7, 0 ), 152, Vector2( 7, 1 ), 155, Vector2( 7, 2 ), 218, Vector2( 7, 3 ), 27, Vector2( 7, 4 ), 154, Vector2( 8, 0 ), 184, Vector2( 8, 1 ), 191, Vector2( 8, 2 ), 506, Vector2( 8, 3 ), 58, Vector2( 8, 4 ), 186, Vector2( 9, 0 ), 443, Vector2( 9, 1 ), 254, Vector2( 9, 2 ), 442, Vector2( 9, 3 ), 190, Vector2( 10, 2 ), 250, Vector2( 10, 3 ), 187 ]
1/autotile/icon_coordinate = Vector2( 0, 0 )
1/autotile/tile_size = Vector2( 32, 32 )
1/autotile/spacing = 0
1/autotile/occluder_map = [  ]
1/autotile/navpoly_map = [  ]
1/autotile/priority_map = [  ]
1/autotile/z_index_map = [  ]
1/occluder_offset = Vector2( 0, 0 )
1/navigation_offset = Vector2( 0, 0 )
1/shape_offset = Vector2( 0, 0 )
1/shape_transform = Transform2D( 1, 0, 0, 1, 0, 0 )
1/shape = SubResource( 48 )
1/shape_one_way = false
1/shape_one_way_margin = 1.0
1/shapes = [ {
"autotile_coord": Vector2( 0, 0 ),
"one_way": false,
"one_way_margin": 1.0,
"shape": SubResource( 48 ),
"shape_transform": Transform2D( 1, 0, 0, 1, 0, 0 )
}, {
"autotile_coord": Vector2( 0, 0 ),
"one_way": false,
"one_way_margin": 1.0,
"shape": SubResource( 49 ),
"shape_transform": Transform2D( 1, 0, 0, 1, 0, 0 )
}, {
"autotile_coord": Vector2( 1, 0 ),
"one_way": false,
"one_way_margin": 1.0,
"shape": SubResource( 50 ),
"shape_transform": Transform2D( 1, 0, 0, 1, 0, 0 )
}, {
"autotile_coord": Vector2( 0, 1 ),
"one_way": false,
"one_way_margin": 1.0,
"shape": SubResource( 51 ),
"shape_transform": Transform2D( 1, 0, 0, 1, 0, 0 )
}, {
"autotile_coord": Vector2( 1, 1 ),
"one_way": false,
"one_way_margin": 1.0,
"shape": SubResource( 52 ),
"shape_transform": Transform2D( 1, 0, 0, 1, 0, 0 )
}, {
"autotile_coord": Vector2( 1, 2 ),
"one_way": false,
"one_way_margin": 1.0,
"shape": SubResource( 53 ),
"shape_transform": Transform2D( 1, 0, 0, 1, 0, 0 )
}, {
"autotile_coord": Vector2( 0, 2 ),
"one_way": false,
"one_way_margin": 1.0,
"shape": SubResource( 54 ),
"shape_transform": Transform2D( 1, 0, 0, 1, 0, 0 )
}, {
"autotile_coord": Vector2( 0, 3 ),
"one_way": false,
"one_way_margin": 1.0,
"shape": SubResource( 55 ),
"shape_transform": Transform2D( 1, 0, 0, 1, 0, 0 )
}, {
"autotile_coord": Vector2( 1, 3 ),
"one_way": false,
"one_way_margin": 1.0,
"shape": SubResource( 56 ),
"shape_transform": Transform2D( 1, 0, 0, 1, 0, 0 )
}, {
"autotile_coord": Vector2( 2, 0 ),
"one_way": false,
"one_way_margin": 1.0,
"shape": SubResource( 57 ),
"shape_transform": Transform2D( 1, 0, 0, 1, 0, 0 )
}, {
"autotile_coord": Vector2( 2, 1 ),
"one_way": false,
"one_way_margin": 1.0,
"shape": SubResource( 58 ),
"shape_transform": Transform2D( 1, 0, 0, 1, 0, 0 )
}, {
"autotile_coord": Vector2( 2, 2 ),
"one_way": false,
"one_way_margin": 1.0,
"shape": SubResource( 59 ),
"shape_transform": Transform2D( 1, 0, 0, 1, 0, 0 )
}, {
"autotile_coord": Vector2( 2, 3 ),
"one_way": false,
"one_way_margin": 1.0,
"shape": SubResource( 60 ),
"shape_transform": Transform2D( 1, 0, 0, 1, 0, 0 )
}, {
"autotile_coord": Vector2( 3, 3 ),
"one_way": false,
"one_way_margin": 1.0,
"shape": SubResource( 61 ),
"shape_transform": Transform2D( 1, 0, 0, 1, 0, 0 )
}, {
"autotile_coord": Vector2( 3, 2 ),
"one_way": false,
"one_way_margin": 1.0,
"shape": SubResource( 62 ),
"shape_transform": Transform2D( 1, 0, 0, 1, 0, 0 )
}, {
"autotile_coord": Vector2( 3, 1 ),
"one_way": false,
"one_way_margin": 1.0,
"shape": SubResource( 63 ),
"shape_transform": Transform2D( 1, 0, 0, 1, 0, 0 )
}, {
"autotile_coord": Vector2( 3, 0 ),
"one_way": false,
"one_way_margin": 1.0,
"shape": SubResource( 64 ),
"shape_transform": Transform2D( 1, 0, 0, 1, 0, 0 )
}, {
"autotile_coord": Vector2( 4, 0 ),
"one_way": false,
"one_way_margin": 1.0,
"shape": SubResource( 65 ),
"shape_transform": Transform2D( 1, 0, 0, 1, 0, 0 )
}, {
"autotile_coord": Vector2( 4, 1 ),
"one_way": false,
"one_way_margin": 1.0,
"shape": SubResource( 66 ),
"shape_transform": Transform2D( 1, 0, 0, 1, 0, 0 )
}, {
"autotile_coord": Vector2( 4, 2 ),
"one_way": false,
"one_way_margin": 1.0,
"shape": SubResource( 67 ),
"shape_transform": Transform2D( 1, 0, 0, 1, 0, 0 )
}, {
"autotile_coord": Vector2( 4, 3 ),
"one_way": false,
"one_way_margin": 1.0,
"shape": SubResource( 68 ),
"shape_transform": Transform2D( 1, 0, 0, 1, 0, 0 )
}, {
"autotile_coord": Vector2( 4, 4 ),
"one_way": false,
"one_way_margin": 1.0,
"shape": SubResource( 69 ),
"shape_transform": Transform2D( 1, 0, 0, 1, 0, 0 )
}, {
"autotile_coord": Vector2( 5, 0 ),
"one_way": false,
"one_way_margin": 1.0,
"shape": SubResource( 70 ),
"shape_transform": Transform2D( 1, 0, 0, 1, 0, 0 )
}, {
"autotile_coord": Vector2( 5, 1 ),
"one_way": false,
"one_way_margin": 1.0,
"shape": SubResource( 71 ),
"shape_transform": Transform2D( 1, 0, 0, 1, 0, 0 )
}, {
"autotile_coord": Vector2( 5, 2 ),
"one_way": false,
"one_way_margin": 1.0,
"shape": SubResource( 72 ),
"shape_transform": Transform2D( 1, 0, 0, 1, 0, 0 )
}, {
"autotile_coord": Vector2( 5, 3 ),
"one_way": false,
"one_way_margin": 1.0,
"shape": SubResource( 73 ),
"shape_transform": Transform2D( 1, 0, 0, 1, 0, 0 )
}, {
"autotile_coord": Vector2( 5, 4 ),
"one_way": false,
"one_way_margin": 1.0,
"shape": SubResource( 74 ),
"shape_transform": Transform2D( 1, 0, 0, 1, 0, 0 )
}, {
"autotile_coord": Vector2( 6, 4 ),
"one_way": false,
"one_way_margin": 1.0,
"shape": SubResource( 75 ),
"shape_transform": Transform2D( 1, 0, 0, 1, 0, 0 )
}, {
"autotile_coord": Vector2( 6, 3 ),
"one_way": false,
"one_way_margin": 1.0,
"shape": SubResource( 76 ),
"shape_transform": Transform2D( 1, 0, 0, 1, 0, 0 )
}, {
"autotile_coord": Vector2( 6, 2 ),
"one_way": false,
"one_way_margin": 1.0,
"shape": SubResource( 77 ),
"shape_transform": Transform2D( 1, 0, 0, 1, 0, 0 )
}, {
"autotile_coord": Vector2( 6, 1 ),
"one_way": false,
"one_way_margin": 1.0,
"shape": SubResource( 78 ),
"shape_transform": Transform2D( 1, 0, 0, 1, 0, 0 )
}, {
"autotile_coord": Vector2( 6, 0 ),
"one_way": false,
"one_way_margin": 1.0,
"shape": SubResource( 79 ),
"shape_transform": Transform2D( 1, 0, 0, 1, 0, 0 )
}, {
"autotile_coord": Vector2( 7, 0 ),
"one_way": false,
"one_way_margin": 1.0,
"shape": SubResource( 80 ),
"shape_transform": Transform2D( 1, 0, 0, 1, 0, 0 )
}, {
"autotile_coord": Vector2( 7, 1 ),
"one_way": false,
"one_way_margin": 1.0,
"shape": SubResource( 81 ),
"shape_transform": Transform2D( 1, 0, 0, 1, 0, 0 )
}, {
"autotile_coord": Vector2( 7, 2 ),
"one_way": false,
"one_way_margin": 1.0,
"shape": SubResource( 82 ),
"shape_transform": Transform2D( 1, 0, 0, 1, 0, 0 )
}, {
"autotile_coord": Vector2( 7, 3 ),
"one_way": false,
"one_way_margin": 1.0,
"shape": SubResource( 83 ),
"shape_transform": Transform2D( 1, 0, 0, 1, 0, 0 )
}, {
"autotile_coord": Vector2( 7, 4 ),
"one_way": false,
"one_way_margin": 1.0,
"shape": SubResource( 84 ),
"shape_transform": Transform2D( 1, 0, 0, 1, 0, 0 )
}, {
"autotile_coord": Vector2( 8, 0 ),
"one_way": false,
"one_way_margin": 1.0,
"shape": SubResource( 85 ),
"shape_transform": Transform2D( 1, 0, 0, 1, 0, 0 )
}, {
"autotile_coord": Vector2( 8, 1 ),
"one_way": false,
"one_way_margin": 1.0,
"shape": SubResource( 86 ),
"shape_transform": Transform2D( 1, 0, 0, 1, 0, 0 )
}, {
"autotile_coord": Vector2( 8, 2 ),
"one_way": false,
"one_way_margin": 1.0,
"shape": SubResource( 87 ),
"shape_transform": Transform2D( 1, 0, 0, 1, 0, 0 )
}, {
"autotile_coord": Vector2( 8, 3 ),
"one_way": false,
"one_way_margin": 1.0,
"shape": SubResource( 88 ),
"shape_transform": Transform2D( 1, 0, 0, 1, 0, 0 )
}, {
"autotile_coord": Vector2( 8, 4 ),
"one_way": false,
"one_way_margin": 1.0,
"shape": SubResource( 89 ),
"shape_transform": Transform2D( 1, 0, 0, 1, 0, 0 )
}, {
"autotile_coord": Vector2( 9, 0 ),
"one_way": false,
"one_way_margin": 1.0,
"shape": SubResource( 90 ),
"shape_transform": Transform2D( 1, 0, 0, 1, 0, 0 )
}, {
"autotile_coord": Vector2( 9, 1 ),
"one_way": false,
"one_way_margin": 1.0,
"shape": SubResource( 91 ),
"shape_transform": Transform2D( 1, 0, 0, 1, 0, 0 )
}, {
"autotile_coord": Vector2( 9, 2 ),
"one_way": false,
"one_way_margin": 1.0,
"shape": SubResource( 92 ),
"shape_transform": Transform2D( 1, 0, 0, 1, 0, 0 )
}, {
"autotile_coord": Vector2( 9, 3 ),
"one_way": false,
"one_way_margin": 1.0,
"shape": SubResource( 93 ),
"shape_transform": Transform2D( 1, 0, 0, 1, 0, 0 )
}, {
"autotile_coord": Vector2( 10, 2 ),
"one_way": false,
"one_way_margin": 1.0,
"shape": SubResource( 94 ),
"shape_transform": Transform2D( 1, 0, 0, 1, 0, 0 )
}, {
"autotile_coord": Vector2( 10, 3 ),
"one_way": false,
"one_way_margin": 1.0,
"shape": SubResource( 95 ),
"shape_transform": Transform2D( 1, 0, 0, 1, 0, 0 )
} ]
1/z_index = 0

[node name="WallTileMap" type="TileMap"]
tile_set = SubResource( 96 )
cell_size = Vector2( 32, 32 )
format = 1
script = ExtResource( 1 )
