[gd_scene load_steps=3 format=2]

[ext_resource path="res://src/objects/timer/TimerContainer.gd" type="Script" id=1]
[ext_resource path="res://src/objects/timer/TimerText.gd" type="Script" id=2]

[node name="TimerContainer" type="Panel"]
pause_mode = 1
self_modulate = Color( 1, 1, 1, 0.666667 )
margin_right = 85.0
margin_bottom = 32.0
script = ExtResource( 1 )
__meta__ = {
"_edit_group_": true,
"_edit_use_anchors_": false
}

[node name="RichTextLabel" type="RichTextLabel" parent="."]
margin_left = 7.0
margin_top = 10.0
margin_right = 100.0
margin_bottom = 25.0
script = ExtResource( 2 )
__meta__ = {
"_edit_use_anchors_": false
}

[node name="Timer" type="Timer" parent="."]
[connection signal="timeout" from="Timer" to="." method="_on_Timer_timeout"]
