[gd_resource type="StyleBoxFlat" format=2]

[resource]
bg_color = Color( 0.160784, 0.0666667, 0.0470588, 1 )
border_width_left = 5
border_width_top = 5
border_width_right = 5
border_width_bottom = 5
border_color = Color( 0.411765, 0.207843, 0.129412, 1 )
expand_margin_left = 10.0
expand_margin_right = 10.0
